<?xml version="1.0" encoding="UTF-8"?>
<svg width="68px" height="86px" viewBox="0 0 68 86" version="1.1" xmlns="http://www.w3.org/2000/svg" xmlns:xlink="http://www.w3.org/1999/xlink">
    <!-- Generator: Sketch 50.2 (55047) - http://www.bohemiancoding.com/sketch -->
    <title>Shape</title>
    <desc>Created with Sketch.</desc>
    <defs></defs>
    <g id="Page-1" stroke="none" stroke-width="1" fill="none" fill-rule="evenodd">
        <g id="noun_play_2151610" fill="#000000" fill-rule="nonzero">
            <path d="M0.7,77.2 L1.1,8.6 C1.2,2.1 8.3,-2 14,1.3 L63,36 C68.7,39.3 68.6,47.6 62.9,50.8 L13.5,84.7 C7.8,88 0.7,83.8 0.7,77.2 Z" id="Shape"></path>
        </g>
    </g>
</svg>