<svg width="142px" height="298px" viewBox="0 0 142 298" version="1.1" xmlns="http://www.w3.org/2000/svg" xmlns:xlink="http://www.w3.org/1999/xlink">

            <path d="M141.425781,0 L0,0 C0,28 17.7,42.1 31,52.4 C42.8,62 47.2,65.7 47.2,74.5 C47.2,83.3 42.8,87 31,96.6 C17.7,106.9 0,121 0,149 C0,177 17.7,191.1 31,201.4 C42.8,211 47.2,214.7 47.2,223.5 C47.2,232.3 42.8,236 31,245.6 C17.7,255.9 0,270 0,298 L141.425781,298 L141.425781,0 Z" id="Shape" fill="white"></path>

</svg>